…
`scan()` function has the most arguments.


```r
df_formals <- purrr::map_df(funs, ~ length(formals(.))) %>%
  tidyr::pivot_longer(
    cols = dplyr::everything(),
    names_to = "function",
    values_to = "argumentCount"
  ) %>%
  dplyr::arrange(desc(argumentCount))

df_formals
#> # A tibble: 1,137 × 2
#>    `function`       argumentCount
#>    <chr>                    <int>
#>  1 scan                        22
#>  2 format.default              16
#>  3 source                      16
#>  4 formatC                     15
#>  5 library                     13
#>  6 merge.data.frame            13
#>  7 prettyNum                   13
#>  8 system2                     11
#>  9 print.default               10
#> 10 save                        10
#> # ℹ 1,127 more rows
```

b. How many base functions have no arguments? What’s special about those functions?



At the time of writing, 47 base (non-primitive) functions have no arguments. 


```r
dplyr::filter(df_formals, argumentCount == 0)
#> # A tibble: 47 × 2
#>    `function`               argumentCount
#>    <chr>                            <int>
#>  1 .First.sys                           0
#>  2 .NotYetImplemented                   0
#>  3 .OptRequireMethods                   0
#>  4 .standard_regexps                    0
#>  5 .tryResumeInterrupt                  0
#>  6 closeAllConnections                  0
#>  7 contributors                         0
#>  8 Cstack_info                          0
#>  9 default.stringsAsFactors             0
#> 10 extSoftVersion                       0
#> # ℹ 37 more rows
```
…
