…
Now it's a simple matter of counting number of methods per generic and ordering the data frame in descending order of this count:


``` r
purrr::map_dfr(
  genFuns,
  ~ s3_methods_generic(.)
) %>%
  dplyr::group_by(generic) %>%
  dplyr::tally() %>%
  dplyr::arrange(desc(n))
#> # A tibble: 123 × 2
#>    generic           n
#>    <chr>         <int>
#>  1 print           292
#>  2 format          132
#>  3 [                54
#>  4 summary          39
#>  5 as.character     38
#>  6 as.data.frame    32
#>  7 plot             31
#>  8 [[               26
#>  9 [<-              17
#> 10 $                15
#> # ℹ 113 more rows
```
…
