Chapter 6 Functions | Advanced R Exercises
…
df_formals <- purrr::map_df(funs, ~ length(formals(.))) %>%
  tidyr::pivot_longer(
    cols = dplyr::everything(),
    names_to = "function",
    values_to = "argumentCount"
  ) %>%
  dplyr::arrange(desc(argumentCount))

How many base functions have no arguments? What’s special about those functions?

At the time of writing, 253 base functions have no arguments. Most of these are primitive functions

dplyr::filter(df_formals, argumentCount == 0)
#> # A tibble: 251 × 2
#>    `function` argumentCount
#>    <chr>              <int>
#>  1 -                      0
#>  2 :                      0
#>  3 ::                     0
#>  4 :::                    0
#>  5 !                      0
#>  6 !=                     0
#>  7 ...elt                 0
#>  8 ...length              0
#>  9 ...names               0
#> 10 .C                     0
#> # … with 241 more rows
…
