…
> How many base functions have no arguments? What’s special about those functions?

At the time of writing, 253 base functions have no arguments. All of these are primitive functions


```r
dplyr::filter(df_formals, argumentCount == 0)
#> # A tibble: 253 x 2
#>    `function` argumentCount
#>    <chr>              <int>
#>  1 -                      0
#>  2 !                      0
#>  3 !=                     0
#>  4 $                      0
#>  5 $<-                    0
#>  6 %%                     0
#>  7 %*%                    0
#>  8 %/%                    0
#>  9 &                      0
#> 10 &&                     0
#> # ... with 243 more rows
```
…
