Chapter 13 S3 | Advanced R Exercises
…
# extracting only generics
genFuns <- names(funs) %>%
  purrr::keep(~ sloop::is_s3_generic(.x))

Now it’s a simple matter of counting number of methods per generic and ordering the data frame in descending order of this count:

purrr::map_dfr(
  genFuns,
  ~ s3_methods_generic(.)
) %>%
  dplyr::group_by(generic) %>%
  dplyr::tally() %>%
  dplyr::arrange(desc(n))
#> # A tibble: 120 × 2
#>    generic           n
#>    <chr>         <int>
#>  1 print           346
#>  2 format          147
#>  3 [                65
#>  4 as.character     50
#>  5 summary          45
#>  6 as.data.frame    37
#>  7 plot             34
#>  8 [[               32
#>  9 [<-              21
#> 10 c                20
#> # … with 110 more rows
…
